{
  "variables": { "ami_image_id": "ami-046dd95b1255a4a03",
                 "aws_access_key": "",
                 "aws_secret_key": "" 
  },
"builders": [{
"type": "amazon-ebs",
"access_key": "{{user `aws_access_key`}}",
"secret_key": "{{user `aws_secret_key`}}",
"region": "eu-west-1",
"source_ami": "{{user `ami_image_id`}}",
"instance_type": "t2.micro",
"ssh_username": "ubuntu",
"ami_name": "Web_server_test",
     "ami_description": "EC2 AMI web",     
     "tags": {
       "role": "Web_Server"
     },
     "run_tags": {
       "role": "Web"
     }
    }
],


"provisioners": [
{
"type": "shell",
"script": "provision.sh"
}
]
}
